Text Mining
…
We can use `unnest_tokens()` from {tidytext} to turn `text` into `word`s

.pull-left[

```r
animals %>%
  select(text) %>%
  unnest_tokens(word, text)
```
]

.pull-right[

```
## # A tibble: 10,316 x 1
##    word          
##    <chr>         
##  1 aardvark      
##  2 classification
##  3 and           
##  4 evolution     
##  5 aardvarks     
##  6 are           
##  7 small         
##  8 pig           
##  9 like          
## 10 mammals       
## # … with 10,306 more rows
```
…
02:30

---

# Your turn #2 - results

We can look at the most frequent tokens by using `count()`

```r
animals %>%
  unnest_tokens(output = word, input = text)
```

```
## # A tibble: 10,316 x 4
##    diet     lifestyle mean_weight word          
##    <chr>    <chr>           <dbl> <chr>         
##  1 Omnivore Nocturnal          70 aardvark      
##  2 Omnivore Nocturnal          70 classification
##  3 Omnivore Nocturnal          70 and           
##  4 Omnivore Nocturnal          70 evolution     
##  5 Omnivore Nocturnal          70 aardvarks     
##  6 Omnivore Nocturnal          70 are           
##  7 Omnivore Nocturnal          70 small         
##  8 Omnivore Nocturnal          70 pig           
##  9 Omnivore Nocturnal          70 like          
## 10 Omnivore Nocturnal          70 mammals       
## # … with 10,306 more rows
```

---

# Your turn #2 - results

We can look at the most frequent tokens by using `count()`

```r
animals %>%
  unnest_tokens(output = word, input = text) %>%
  count(word, sort = TRUE)
```

```
## # A tibble: 1,774 x 2
##    word        n
##    <chr>   <int>
##  1 the       682
##  2 and       370
##  3 of        336
##  4 to        329
##  5 african   278
##  6 in        220
##  7 are       166
##  8 is        164
##  9 a         150
## 10 their     137
## # … with 1,764 more rows
```
…
---

# Stop words

```r
library(tidytext)
stop_words
```

```
## # A tibble: 1,149 x 2
##    word        lexicon
##    <chr>       <chr>  
##  1 a           SMART  
##  2 a's         SMART  
##  3 able        SMART  
##  4 about       SMART  
##  5 above       SMART  
##  6 according   SMART  
##  7 accordingly SMART  
##  8 across      SMART  
##  9 actually    SMART  
## 10 after       SMART  
## # … with 1,139 more rows
```
…
02:30

---

# Your turn #3 - result

```r
animals %>%
  unnest_tokens(word, text) %>%
  anti_join(stop_words, by = "word") %>%
  count(word, sort = TRUE)
```

```
## # A tibble: 1,471 x 2
##    word         n
##    <chr>    <int>
##  1 african    278
##  2 elephant    89
##  3 civet       84
##  4 bush        63
##  5 forest      58
##  6 clawed      51
##  7 adelie      47
##  8 palm        46
##  9 frog        42
## 10 penguin     40
## # … with 1,461 more rows
```
…
```r
library(SnowballC)

animals %>%
  unnest_tokens(word, text) %>%
  mutate(word_stem = wordStem(word)) %>%
  select(word, word_stem)
```
]

.pull-right[

```
## # A tibble: 10,316 x 2
##    word           word_stem
##    <chr>          <chr>    
##  1 aardvark       aardvark 
##  2 classification classif  
##  3 and            and      
##  4 evolution      evolut   
##  5 aardvarks      aardvark 
##  6 are            ar       
##  7 small          small    
##  8 pig            pig      
##  9 like           like     
## 10 mammals        mammal   
## # … with 10,306 more rows
```
…
