Modeling
…
rec_spec %>%
  prep() %>%
  bake(new_data = NULL)
```

---

### Your turn #6 - result

```
## # A tibble: 459 x 103
##    lifestyle mean_weight diet  tf_text_able tf_text_africa tf_text_african
##    <fct>           <dbl> <fct>        <dbl>          <dbl>           <dbl>
##  1 Nocturnal       70    Omni…            7              3               1
##  2 <NA>            NA    Unkn…            0              1               1
##  3 Diurnal          4.5  Carn…            4              0               0
##  4 <NA>            NA    Unkn…            2              0               0
##  5 Diurnal       4500    Herb…            3              6              67
##  6 Nocturnal        2.95 Omni…            1              2              55
##  7 Diurnal       1950    Herb…            3              3              59
##  8 Crepuscu…        2.95 Omni…            2              3              44
##  9 Diurnal          3.5  Carn…            0              3              47
## 10 Crepuscu…       26.5  Carn…            1              4              51
## # … with 449 more rows, and 97 more variables: tf_text_along <dbl>,
## #   tf_text_also <dbl>, tf_text_although <dbl>, tf_text_animal <dbl>,
## #   tf_text_animals <dbl>, tf_text_appearance <dbl>, tf_text_areas <dbl>,
## #   tf_text_around <dbl>, tf_text_bear <dbl>, tf_text_birds <dbl>,
## #   tf_text_birth <dbl>, tf_text_black <dbl>, tf_text_body <dbl>,
## #   tf_text_breed <dbl>, tf_text_can <dbl>, tf_text_common <dbl>,
## #   tf_text_despite <dbl>, tf_text_diet <dbl>, tf_text_different <dbl>,
## #   tf_text_dog <dbl>, tf_text_due <dbl>, tf_text_eat <dbl>,
## #   tf_text_eggs <dbl>, tf_text_elephant <dbl>, tf_text_even <dbl>,
…
rec_spec %>%
  prep() %>%
  bake(new_data = NULL)
```

---

### Your turn #6 - result

```
## # A tibble: 459 x 14,347
##    lifestyle mean_weight diet  tf_text_0.2 tf_text_0.24 tf_text_0.5
##    <fct>           <dbl> <fct>       <dbl>        <dbl>       <dbl>
##  1 Nocturnal       70    Omni…           0            0           0
##  2 <NA>            NA    Unkn…           0            0           0
##  3 Diurnal          4.5  Carn…           0            0           0
##  4 <NA>            NA    Unkn…           0            0           0
##  5 Diurnal       4500    Herb…           0            0           0
##  6 Nocturnal        2.95 Omni…           0            0           0
##  7 Diurnal       1950    Herb…           0            0           0
##  8 Crepuscu…        2.95 Omni…           0            0           0
##  9 Diurnal          3.5  Carn…           0            0           0
## 10 Crepuscu…       26.5  Carn…           0            0           0
## # … with 449 more rows, and 14,341 more variables: tf_text_0.5cm <dbl>,
## #   tf_text_0.6 <dbl>, tf_text_0.7 <dbl>, tf_text_0.88 <dbl>,
## #   tf_text_0.9 <dbl>, tf_text_011 <dbl>, tf_text_014 <dbl>,
## #   tf_text_053 <dbl>, tf_text_07 <dbl>, tf_text_071 <dbl>,
## #   tf_text_1 <dbl>, `tf_text_1,000` <dbl>, `tf_text_1,000,000` <dbl>,
## #   `tf_text_1,000kg` <dbl>, `tf_text_1,000km` <dbl>,
## #   `tf_text_1,037` <dbl>, `tf_text_1,100` <dbl>, `tf_text_1,175` <dbl>,
## #   `tf_text_1,200` <dbl>, `tf_text_1,200,000` <dbl>,
## #   `tf_text_1,215` <dbl>, `tf_text_1,300` <dbl>, `tf_text_1,300m` <dbl>,
…
rec_spec %>%
  prep() %>%
  bake(new_data = NULL)
```

---

### Your turn #7 - result

```
## # A tibble: 459 x 103
##    lifestyle mean_weight diet  tfidf_text_able tfidf_text_afri…
##    <fct>           <dbl> <fct>           <dbl>            <dbl>
##  1 Nocturnal       70    Omni…         0.0433            0.0252
##  2 <NA>            NA    Unkn…         0                 0.0310
##  3 Diurnal          4.5  Carn…         0.0249            0     
##  4 <NA>            NA    Unkn…         0.0329            0     
##  5 Diurnal       4500    Herb…         0.0127            0.0344
##  6 Nocturnal        2.95 Omni…         0.00595           0.0162
##  7 Diurnal       1950    Herb…         0.0163            0.0221
##  8 Crepuscu…        2.95 Omni…         0.0114            0.0231
##  9 Diurnal          3.5  Carn…         0                 0.0175
## 10 Crepuscu…       26.5  Carn…         0.00401           0.0218
## # … with 449 more rows, and 98 more variables: tfidf_text_african <dbl>,
## #   tfidf_text_along <dbl>, tfidf_text_also <dbl>,
## #   tfidf_text_although <dbl>, tfidf_text_animal <dbl>,
## #   tfidf_text_animals <dbl>, tfidf_text_appearance <dbl>,
## #   tfidf_text_areas <dbl>, tfidf_text_around <dbl>,
## #   tfidf_text_bear <dbl>, tfidf_text_birds <dbl>,
## #   tfidf_text_birth <dbl>, tfidf_text_black <dbl>,
## #   tfidf_text_body <dbl>, tfidf_text_breed <dbl>, tfidf_text_can <dbl>,
## #   tfidf_text_common <dbl>, tfidf_text_despite <dbl>,
…
```r
rec_spec <- recipe(diet ~ .,
                   data = animals_training) %>%
  step_tokenize(text) %>%
  step_stopwords(text) %>%
  step_tokenfilter(text, max_tokens = 100) %>%
  step_tfidf(text)

rec_spec %>%
  prep() %>%
  bake(new_data = NULL)
```

```
## # A tibble: 459 x 103
##    lifestyle mean_weight diet  tfidf_text_able tfidf_text_afri…
##    <fct>           <dbl> <fct>           <dbl>            <dbl>
##  1 Nocturnal       70    Omni…         0.0433            0.0252
##  2 <NA>            NA    Unkn…         0                 0.0310
##  3 Diurnal          4.5  Carn…         0.0249            0     
##  4 <NA>            NA    Unkn…         0.0329            0     
##  5 Diurnal       4500    Herb…         0.0127            0.0344
##  6 Nocturnal        2.95 Omni…         0.00595           0.0162
##  7 Diurnal       1950    Herb…         0.0163            0.0221
##  8 Crepuscu…        2.95 Omni…         0.0114            0.0231
##  9 Diurnal          3.5  Carn…         0                 0.0175
## 10 Crepuscu…       26.5  Carn…         0.00401           0.0218
## # … with 449 more rows, and 98 more variables: tfidf_text_african <dbl>,
## #   tfidf_text_along <dbl>, tfidf_text_also <dbl>,
## #   tfidf_text_although <dbl>, tfidf_text_animal <dbl>,
## #   tfidf_text_animals <dbl>, tfidf_text_appearance <dbl>,
## #   tfidf_text_areas <dbl>, tfidf_text_around <dbl>,
## #   tfidf_text_bear <dbl>, tfidf_text_birds <dbl>,
## #   tfidf_text_birth <dbl>, tfidf_text_black <dbl>,
## #   tfidf_text_body <dbl>, tfidf_text_breed <dbl>, tfidf_text_can <dbl>,
## #   tfidf_text_common <dbl>, tfidf_text_despite <dbl>,
…
param_grid
```
]

.pull-right[

```
## # A tibble: 200 x 2
##     penalty max_tokens
##       <dbl>      <int>
##  1 0.0001          100
##  2 0.000121        100
##  3 0.000146        100
##  4 0.000176        100
##  5 0.000212        100
##  6 0.000256        100
##  7 0.000309        100
##  8 0.000373        100
##  9 0.000450        100
## 10 0.000543        100
## # … with 190 more rows
```
…
---

# Look at the tuning results 👀

```r
collect_metrics(lasso_rs)
```

```
## # A tibble: 400 x 8
##     penalty max_tokens .metric  .estimator  mean     n std_err .config    
##       <dbl>      <int> <chr>    <chr>      <dbl> <int>   <dbl> <chr>      
##  1 0.0001          100 accuracy multiclass 0.565     5 0.0157  Recipe1_Mo…
##  2 0.0001          100 roc_auc  hand_till  0.806     5 0.00639 Recipe1_Mo…
##  3 0.000121        100 accuracy multiclass 0.565     5 0.0157  Recipe1_Mo…
##  4 0.000121        100 roc_auc  hand_till  0.807     5 0.00638 Recipe1_Mo…
##  5 0.000146        100 accuracy multiclass 0.565     5 0.0157  Recipe1_Mo…
##  6 0.000146        100 roc_auc  hand_till  0.808     5 0.00633 Recipe1_Mo…
##  7 0.000176        100 accuracy multiclass 0.565     5 0.0157  Recipe1_Mo…
##  8 0.000176        100 roc_auc  hand_till  0.809     5 0.00638 Recipe1_Mo…
##  9 0.000212        100 accuracy multiclass 0.569     5 0.0174  Recipe1_Mo…
## 10 0.000212        100 roc_auc  hand_till  0.810     5 0.00669 Recipe1_Mo…
## # … with 390 more rows
```
…
---

# Evaluate the best model 📐

```r
collect_predictions(lasso_rs, parameters = best_roc_auc)
```

```
## # A tibble: 459 x 11
##    id    .pred_Carnivore .pred_Herbivore .pred_Omnivore .pred_Unknown
##    <chr>           <dbl>           <dbl>          <dbl>         <dbl>
##  1 Fold1          0.124           0.0715         0.121        0.684  
##  2 Fold1          0.821           0.0533         0.113        0.0127 
##  3 Fold1          0.351           0.330          0.278        0.0402 
##  4 Fold1          0.0496          0.0430         0.0915       0.816  
##  5 Fold1          0.205           0.0415         0.0768       0.677  
##  6 Fold1          0.468           0.179          0.305        0.0492 
##  7 Fold1          0.352           0.196          0.420        0.0325 
##  8 Fold1          0.149           0.0840         0.181        0.586  
##  9 Fold1          0.829           0.108          0.0556       0.00688
## 10 Fold1          0.139           0.636          0.206        0.0192 
## # … with 449 more rows, and 6 more variables: .row <int>,
## #   max_tokens <int>, penalty <dbl>, .pred_class <fct>, diet <fct>,
## #   .config <chr>
```
…
---

## Variable importance 

```r
vi_data
```

```
## # A tibble: 69 x 3
##    Variable    Importance Sign 
##    <chr>            <dbl> <chr>
##  1 carnivores       552.  POS  
##  2 carnivorous      461.  POS  
##  3 prey             210.  POS  
##  4 hunt             176.  POS  
##  5 numbers          170.  POS  
##  6 population       115.  POS  
##  7 ocean            110.  POS  
##  8 near              91.6 POS  
##  9 feet              87.8 POS  
## 10 hatch             86.1 POS  
## # … with 59 more rows
```
…
